TRUE,1,2,3,4,5,6,7,8,9,10,11,12,13,14,15,16,17,18,19,20,21,22,23,24,25,26,27,28,29,30,31,32,33,34,35,36,37,38,39,40,41,42,43,44,45,46,47,48,49,50,51,52,53,54,55,56,57,58,59,60,61,62,63,64,65,66,67,68,69,70,71,72,73,74,75,76,77,78,79,80,81,82,83,84,85,86,87,88,89,90,91,92,93,94,95,96,97,98,99,100,101,102,103,104,105,106,107,108,109,110,111,112,113,114,115,116,117,118,119,120,121,122,123,124,125,126,127,128,129,130,131,132,133,134,135,136,137,138,139,140,141,142,143,144,145,146,147,148,149,150,151,152,153,154,155,156,157,158,159,160,161,162,163,164,165,166,167,168,169,170,171,172,173,174,175,176,177,178,179,180,181,182,183,184,185,186,187,188,189,190,191,192,193,194,195,196,197,198,199,200
0,0.20379181,0.18173891,0.18173891,0.18173891,0.18173891,0.18173891,0.18173891,0.18173891,0.18173891,0.18173891,0.18173891,0.18173891,0.18173891,0.18173891,0.18173891,0.18173891,0.18173891,0.18173891,0.18173891,0.18173891,0.18173891,0.18173891,0.18173891,0.18173891,0.18173891,0.18173891,0.18173891,0.18173891,0.18173891,0.18173891,0.18173891,0.18173891,0.18173891,0.18173891,0.18173891,0.18173891,0.18173891,0.18173891,0.18173891,0.18173891,0.18173891,0.18173891,0.18173891,0.18173891,0.18173891,0.18173891,0.18173891,0.18173891,0.18173891,0.18173891,0.18173891,0.18173891,0.18173891,0.18173891,0.18173891,0.18173891,0.18173891,0.18173891,0.18173891,0.18173891,0.18173891,0.18173891,0.18173891,0.18173891,0.18173891,0.18173891,0.18173891,0.18173891,0.18173891,0.18173891,0.18173891,0.18173891,0.18173891,0.18173891,0.18173891,0.18173891,0.18173891,0.18173891,0.18173891,0.18173891,0.18173891,0.18173891,0.18173891,0.18173891,0.18173891,0.18173891,0.18173891,0.18173891,0.18173891,0.18173891,0.18173891,0.18173891,0.18173891,0.18173891,0.18173891,0.18173891,0.18173891,0.18173891,0.18173891,0.18173891,0.18173891,0.18173891,0.18173891,0.18173891,0.18173891,0.18173891,0.18173891,0.18173891,0.18173891,0.18173891,0.18173891,0.18173891,0.18173891,0.18173891,0.18173891,0.18173891,0.18173891,0.18173891,0.18173891,0.18173891,0.18173891,0.18173891,0.18173891,0.18173891,0.18173891,0.18173891,0.18173891,0.18173891,0.18173891,0.18173891,0.18173891,0.18173891,0.18173891,0.18173891,0.18173891,0.18173891,0.18173891,0.18173891,0.18173891,0.18173891,0.18173891,0.18173891,0.18173891,0.18173891,0.18173891,0.18173891,0.18173891,0.18173891,0.18173891,0.18173891,0.18173891,0.18173891,0.18173891,0.18173891,0.18173891,0.18173891,0.18173891,0.18173891,0.18173891,0.18173891,0.18173891,0.18173891,0.18173891,0.18173891,0.18173891,0.18173891,0.18173891,0.18173891,0.18173891,0.18173891,0.18173891,0.18173891,0.18173891,0.18173891,0.18173891,0.18173891,0.18173891,0.18173891,0.18173891,0.18173891,0.18173891,0.18173891,0.18173891,0.18173891,0.18173891,0.18173891,0.18173891,0.18173891,0.18173891,0.18173891,0.18173891,0.18173891,0.18173891,0.18173891,0.18173891,0.18173891,0.18173891,0.18173891,0.18173891,0.18173891
1,0.57337457,0.55140084,0.55233943,0.53065705,0.5135255,0.5141268,0.4903462,0.4903462,0.4909801,0.4909801,0.4909801,0.4909801,0.4909801,0.4885863,0.4885863,0.4885863,0.4885863,0.51509786,0.50533247,0.44573024,0.44666874,0.42221376,0.42255095,0.42284766,0.42318484,0.42318484,0.42318484,0.42318484,0.42318484,0.42079106,0.42318484,0.42318484,0.42378616,0.42378616,0.41902977,0.3890494,0.3893866,0.3893866,0.3893866,0.3893866,0.3893866,0.3893866,0.3893866,0.3893866,0.3893866,0.3893866,0.3893866,0.3893866,0.3893866,0.3893866,0.3893866,0.39096034,0.39096034,0.39096034,0.39096034,0.39096034,0.39096034,0.39096034,0.39096034,0.39096034,0.39096034,0.39096034,0.39096034,0.39096034,0.39096034,0.39096034,0.39096034,0.39096034,0.39096034,0.39096034,0.36509532,0.3654325,0.3660664,0.3660664,0.3660664,0.3660664,0.3660664,0.3660664,0.3660664,0.3660664,0.3660664,0.36666772,0.36666772,0.36191133,0.331931,0.33226818,0.33226818,0.33226818,0.33226818,0.33226818,0.33226818,0.33226818,0.33226818,0.33226818,0.33226818,0.33226818,0.33226818,0.33226818,0.33226818,0.33226818,0.33384192,0.33384192,0.33384192,0.33384192,0.33384192,0.33384192,0.33384192,0.33384192,0.33384192,0.33384192,0.33384192,0.33384192,0.33384192,0.33384192,0.33384192,0.33384192,0.33384192,0.33384192,0.33384192,0.33384192,0.33384192,0.33384192,0.32871583,0.32871583,0.32871583,0.32871583,0.32871583,0.32871583,0.3233311,0.29777116,0.29777116,0.29777116,0.29777116,0.29777116,0.29777116,0.29777116,0.29777116,0.29777116,0.29777116,0.29777116,0.29777116,0.29777116,0.29777116,0.29777116,0.29777116,0.29777116,0.29777116,0.29777116,0.29777116,0.29777116,0.29777116,0.29777116,0.29777116,0.29777116,0.29777116,0.29777116,0.29777116,0.29777116,0.29777116,0.29777116,0.29777116,0.29777116,0.29777116,0.29777116,0.29777116,0.29777116,0.29777116,0.29777116,0.2942188,0.2942188,0.2942188,0.2942188,0.2942188,0.2942188,0.2942188,0.2942188,0.2942188,0.2942188,0.2942188,0.2942188,0.29300657,0.29300657,0.29300657,0.29300657,0.29300657,0.29300657,0.29300657,0.29300657,0.29300657,0.29300657,0.29300657,0.29300657,0.29300657,0.29300657,0.29300657,0.29300657,0.28945422,0.28945422,0.28945422,0.28945422
2,1.3697542,0.07447099,0.07447099,0.07447099,0.07447099,0.07447099,0.07447099,0.07447099,0.07447099,0.07447099,0.07447099,0.07447099,0.07447099,0.07447099,0.07447099,0.07447099,0.07447099,0.07447099,0.07447099,0.07447099,0.07447099,0.07447099,0.07447099,0.07447099,0.07447099,0.07447099,0.07447099,0.07447099,0.07447099,0.07447099,0.07447099,0.07447099,0.07447099,0.07447099,0.07447099,0.07447099,0.07447099,0.07447099,0.07447099,0.07447099,0.07447099,0.07447099,0.07447099,0.07447099,0.07447099,0.07447099,0.07447099,0.07447099,0.07447099,0.07447099,0.07447099,0.07447099,0.07447099,0.07447099,0.07447099,0.07447099,0.07447099,0.07447099,0.07447099,0.07447099,0.07447099,0.07447099,0.07447099,0.07447099,0.07447099,0.07447099,0.07447099,0.07447099,0.07447099,0.07447099,0.07447099,0.07447099,0.07447099,0.07447099,0.07447099,0.07447099,0.07447099,0.07447099,0.07447099,0.07447099,0.07447099,0.07447099,0.07447099,0.07447099,0.07447099,0.07447099,0.07447099,0.07447099,0.07447099,0.07447099,0.07447099,0.07447099,0.07447099,0.07447099,0.07447099,0.07447099,0.07447099,0.07447099,0.07447099,0.07447099,0.07447099,0.07447099,0.07447099,0.07447099,0.07447099,0.07447099,0.07447099,0.07447099,0.07447099,0.07447099,0.07447099,0.07447099,0.07447099,0.07447099,0.07447099,0.07447099,0.07447099,0.07447099,0.07447099,0.07447099,0.07447099,0.07447099,0.07447099,0.07447099,0.07447099,0.07447099,0.07447099,0.07447099,0.07447099,0.07447099,0.07447099,0.07447099,0.07447099,0.07447099,0.07447099,0.07447099,0.07447099,0.07447099,0.07447099,0.07447099,0.07447099,0.07447099,0.07447099,0.07447099,0.07447099,0.07447099,0.07447099,0.07447099,0.07447099,0.07447099,0.07447099,0.07447099,0.07447099,0.07447099,0.07447099,0.07447099,0.07447099,0.07447099,0.07447099,0.07447099,0.07447099,0.07447099,0.07447099,0.07447099,0.07447099,0.07447099,0.07447099,0.07447099,0.07447099,0.07447099,0.07447099,0.07447099,0.07447099,0.07447099,0.07447099,0.07447099,0.07447099,0.07447099,0.07447099,0.07447099,0.07447099,0.07447099,0.07447099,0.07447099,0.07447099,0.07447099,0.07447099,0.07447099,0.07447099,0.07447099,0.07447099,0.07447099,0.07447099,0.07447099,0.07447099,0.07447099,0.07447099,0.07447099,0.07447099,0.07447099
3,0.886914,1.6156564,1.6156564,1.6156564,1.6156564,1.6156564,1.6156564,1.6156564,1.6156564,1.6156564,1.6156564,1.6156564,1.6156564,1.6156564,1.6156564,1.6156564,1.6156564,1.6156564,1.6156564,1.6156564,1.6156564,1.6156564,1.6156564,1.6156564,1.6156564,1.6156564,1.6156564,1.6156564,1.6156564,1.6156564,1.6156564,1.6156564,1.6156564,1.6156564,1.6156564,1.6156564,1.6156564,1.6156564,1.6156564,1.6156564,1.6156564,1.6156564,1.6156564,1.6156564,1.6156564,1.6156564,1.6156564,1.6156564,1.6156564,1.6156564,1.6156564,1.6156564,1.6156564,1.6156564,1.6156564,1.6156564,1.6156564,1.6156564,1.6156564,1.6156564,1.6156564,1.6156564,1.6156564,1.6156564,1.6156564,1.6156564,1.6156564,1.6156564,1.6156564,1.6156564,1.6156564,1.6156564,1.6156564,1.6156564,1.6156564,1.6156564,1.6156564,1.6156564,1.6156564,1.6156564,1.6156564,1.6156564,1.6156564,1.6156564,1.6156564,1.6156564,1.6156564,1.6156564,1.6156564,1.6156564,1.6156564,1.6156564,1.6156564,1.6156564,1.6156564,1.6156564,1.6156564,1.6156564,1.6156564,1.6156564,1.6156564,1.6156564,1.6156564,1.6156564,1.6156564,1.6156564,1.6156564,1.6156564,1.6156564,1.6156564,1.6156564,1.6156564,1.6156564,1.6156564,1.6156564,1.6156564,1.6156564,1.6156564,1.6156564,1.6156564,1.6156564,1.6156564,1.6156564,1.6156564,1.6156564,1.6156564,1.6156564,1.6156564,1.6156564,1.6156564,1.6156564,1.6156564,1.6156564,1.6156564,1.6156564,1.6156564,1.6156564,1.6156564,1.6156564,1.6156564,1.6156564,1.6156564,1.6156564,1.6156564,1.6156564,1.6156564,1.6156564,1.6156564,1.6156564,1.6156564,1.6156564,1.6156564,1.6156564,1.6156564,1.6156564,1.6156564,1.6156564,1.6156564,1.6156564,1.6156564,1.6156564,1.6156564,1.6156564,1.6156564,1.6156564,1.6156564,1.6156564,1.6156564,1.6156564,1.6156564,1.6156564,1.6156564,1.6156564,1.6156564,1.6156564,1.6156564,1.6156564,1.6156564,1.6156564,1.6156564,1.6156564,1.6156564,1.6156564,1.6156564,1.6156564,1.6156564,1.6156564,1.6156564,1.6156564,1.6156564,1.6156564,1.6156564,1.6156564,1.6156564,1.6156564,1.6156564,1.6156564,1.6156564,1.6156564,1.6156564
4,0.115087725,0.16491537,0.1959847,0.2550241,0.18744256,0.20963493,0.28642824,0.28642824,0.30862063,0.30862063,0.30862063,0.37519777,0.37519777,0.41958255,0.41958255,0.41958255,0.41958255,0.37486297,0.24070427,0.23249692,0.26356626,0.32260567,0.33148262,0.34479803,0.353675,0.353675,0.353675,0.42025214,0.42025214,0.4646369,0.42025214,0.42025214,0.44244453,0.44244453,0.39872935,0.45776877,0.46664572,0.46664572,0.46664572,0.46664572,0.46664572,0.46664572,0.46664572,0.46664572,0.46664572,0.46664572,0.46664572,0.46664572,0.46664572,0.46664572,0.46664572,0.5110305,0.5110305,0.5110305,0.5110305,0.5110305,0.5110305,0.5110305,0.5110305,0.5110305,0.5110305,0.5110305,0.5110305,0.5110305,0.5110305,0.5110305,0.5110305,0.5110305,0.5110305,0.5110305,0.35864916,0.3675261,0.3897185,0.3897185,0.3897185,0.3897185,0.45629564,0.45629564,0.3897185,0.45629564,0.45629564,0.47848803,0.47848803,0.43477285,0.49381226,0.50268924,0.50268924,0.50268924,0.50268924,0.50268924,0.50268924,0.50268924,0.50268924,0.50268924,0.50268924,0.50268924,0.50268924,0.50268924,0.50268924,0.50268924,0.54707396,0.54707396,0.54707396,0.54707396,0.54707396,0.54707396,0.54707396,0.54707396,0.54707396,0.54707396,0.54707396,0.54707396,0.54707396,0.54707396,0.54707396,0.54707396,0.54707396,0.54707396,0.54707396,0.54707396,0.54707396,0.54707396,0.81338257,0.81338257,0.81338257,0.81338257,0.81338257,0.81338257,0.80154026,0.6468632,0.6468632,0.6468632,0.6468632,0.6468632,0.6468632,0.6468632,0.6468632,0.6468632,0.6468632,0.6468632,0.6468632,0.6468632,0.6468632,0.6468632,0.6468632,0.6468632,0.6468632,0.6468632,0.6468632,0.6468632,0.6468632,0.6468632,0.6468632,0.6468632,0.6468632,0.6468632,0.6468632,0.6468632,0.6468632,0.6468632,0.6468632,0.6468632,0.6468632,0.6468632,0.6468632,0.6468632,0.6468632,0.6468632,0.95755655,0.95755655,0.95755655,0.95755655,0.95755655,0.95755655,0.95755655,0.95755655,0.95755655,0.95755655,0.95755655,0.95755655,0.67389584,0.67389584,0.67389584,0.67389584,0.67389584,0.67389584,0.67389584,0.67389584,0.67389584,0.67389584,0.67389584,0.67389584,0.67389584,0.67389584,0.67389584,0.67389584,0.98458916,0.98458916,0.98458916,0.98458916
5,0.9596238,1.1760731,1.1760731,1.1760731,1.1760731,1.1760731,1.1760731,1.1760731,1.1760731,1.1760731,1.1760731,1.1760731,1.1760731,1.1760731,1.1760731,1.1760731,1.1760731,1.1760731,1.1760731,1.1760731,1.1760731,1.1760731,1.1760731,1.1760731,1.1760731,1.1760731,1.1760731,1.1760731,1.1760731,1.1760731,1.1760731,1.1760731,1.1760731,1.1760731,1.1760731,1.1760731,1.1760731,1.1760731,1.1760731,1.1760731,1.1760731,1.1760731,1.1760731,1.1760731,1.1760731,1.1760731,1.1760731,1.1760731,1.1760731,1.1760731,1.1760731,1.1760731,1.1760731,1.1760731,1.1760731,1.1760731,1.1760731,1.1760731,1.1760731,1.1760731,1.1760731,1.1760731,1.1760731,1.1760731,1.1760731,1.1760731,1.1760731,1.1760731,1.1760731,1.1760731,1.1760731,1.1760731,1.1760731,1.1760731,1.1760731,1.1760731,1.1760731,1.1760731,1.1760731,1.1760731,1.1760731,1.1760731,1.1760731,1.1760731,1.1760731,1.1760731,1.1760731,1.1760731,1.1760731,1.1760731,1.1760731,1.1760731,1.1760731,1.1760731,1.1760731,1.1760731,1.1760731,1.1760731,1.1760731,1.1760731,1.1760731,1.1760731,1.1760731,1.1760731,1.1760731,1.1760731,1.1760731,1.1760731,1.1760731,1.1760731,1.1760731,1.1760731,1.1760731,1.1760731,1.1760731,1.1760731,1.1760731,1.1760731,1.1760731,1.1760731,1.1760731,1.1760731,1.1760731,1.1760731,1.1760731,1.1760731,1.1760731,1.1760731,1.1760731,1.1760731,1.1760731,1.1760731,1.1760731,1.1760731,1.1760731,1.1760731,1.1760731,1.1760731,1.1760731,1.1760731,1.1760731,1.1760731,1.1760731,1.1760731,1.1760731,1.1760731,1.1760731,1.1760731,1.1760731,1.1760731,1.1760731,1.1760731,1.1760731,1.1760731,1.1760731,1.1760731,1.1760731,1.1760731,1.1760731,1.1760731,1.1760731,1.1760731,1.1760731,1.1760731,1.1760731,1.1760731,1.1760731,1.1760731,1.1760731,1.1760731,1.1760731,1.1760731,1.1760731,1.1760731,1.1760731,1.1760731,1.1760731,1.1760731,1.1760731,1.1760731,1.1760731,1.1760731,1.1760731,1.1760731,1.1760731,1.1760731,1.1760731,1.1760731,1.1760731,1.1760731,1.1760731,1.1760731,1.1760731,1.1760731,1.1760731,1.1760731,1.1760731,1.1760731,1.1760731,1.1760731
